Calculate and Plot Pollutant Load Duration Curves • ldc
…
## ldc uses the unit package to facilitate unit conversions
## we need to make the cfu unit first, since it isn't included 
## in the units package
install_unit("cfu")

## format the data for use in ldc
tres_palacios <- as_tibble(tres_palacios) %>%
  ## flow must have units, here is is in cfs
  mutate(Flow = set_units(Flow, "ft^3/s")) %>%
  ## pollutant concentration must have units
  mutate(Indicator_Bacteria = set_units(Indicator_Bacteria, "cfu/100mL"))

tres_palacios
#> # A tibble: 7,671 x 4
#>    site_no  Date           Flow Indicator_Bacteria
#>    <chr>    <date>     [ft^3/s]        [cfu/100mL]
#>  1 08162600 2000-01-01     0.84                 NA
#>  2 08162600 2000-01-02     3                    NA
#>  3 08162600 2000-01-03     3.4                  NA
#>  4 08162600 2000-01-04     2.6                  NA
#>  5 08162600 2000-01-05     1.6                  NA
#>  6 08162600 2000-01-06     3.2                  NA
#>  7 08162600 2000-01-07    11                    NA
#>  8 08162600 2000-01-08    17                    NA
#>  9 08162600 2000-01-09    22                    NA
#> 10 08162600 2000-01-10    18                    NA
#> # ... with 7,661 more rows
…
## specify the allowable concentration
allowable_concentration <- 126
## set the units
units(allowable_concentration) <- "cfu/100mL"

## calculate the exceedance probabilities along with
## allowable pollutant loads and measured pollutant loads
## at given probabilities
df_ldc <- calc_ldc(tres_palacios, 
                   Q = Flow, 
                   C = Indicator_Bacteria, 
                   allowable_concentration = allowable_concentration)

df_ldc
#> # A tibble: 7,671 x 9
#>    site_no  Date           Flow Indicator_Bacteria Daily_Flow_Volume Daily_Load
#>    <chr>    <date>     [ft^3/s]        [cfu/100mL]         [100mL/d]    [cfu/d]
#>  1 08162600 2000-01-01     0.84                 NA         20551235.         NA
#>  2 08162600 2000-01-02     3                    NA         73397266.         NA
#>  3 08162600 2000-01-03     3.4                  NA         83183569.         NA
#>  4 08162600 2000-01-04     2.6                  NA         63610964.         NA
#>  5 08162600 2000-01-05     1.6                  NA         39145209.         NA
#>  6 08162600 2000-01-06     3.2                  NA         78290417.         NA
#>  7 08162600 2000-01-07    11                    NA        269123310.         NA
#>  8 08162600 2000-01-08    17                    NA        415917843.         NA
#>  9 08162600 2000-01-09    22                    NA        538246620.         NA
#> 10 08162600 2000-01-10    18                    NA        440383598.         NA
#> # ... with 7,661 more rows, and 3 more variables: Allowable_Daily_Load [cfu/d],
#> #   P_Exceedance <dbl>, Flow_Category <fct>
…
