Calculate load duration curve — calc_ldc • ldc
…
## specify the allowable concentration
allowable_concentration <- 126
## set the units
units(allowable_concentration) <- "cfu/100mL"
df_ldc <- calc_ldc(df,
                   Q = Flow,
                   C = Indicator_Bacteria,
                   allowable_concentration = allowable_concentration)
df_ldc
#> # A tibble: 72 × 9
#>    site_no  Date           Flow Indicator_Bacteria Daily_Flow_Volume  Daily_Load
#>    <chr>    <date>     [ft^3/s]        [cfu/100mL]         [100mL/d]     [cfu/d]
#>  1 08162600 2011-09-28     4.99                770        122084120.     9.40e10
#>  2 08162600 2009-09-09     5.52                 92        135050970.     1.24e10
#>  3 08162600 2003-06-24     7.12                 10        174196179.     1.74e 9
#>  4 08162600 2009-06-11     7.7                 160        188386317.     3.01e10
#>  5 08162600 2010-12-16     8.99                 93        219947142.     2.05e10
#>  6 08162600 2008-12-16     9.06                 74        221659744.     1.64e10
#>  7 08162600 2012-01-04     9.15                220        223861662.     4.92e10
#>  8 08162600 2002-06-12     9.2                  74        225084950.     1.67e10
#>  9 08162600 2016-02-10     9.46                 32        231446047.     7.41e 9
#> 10 08162600 2016-04-06     9.46                 31        231446047.     7.17e 9
#> # … with 62 more rows, and 3 more variables: Allowable_Daily_Load [cfu/d],
#> #   P_Exceedance <dbl>, Flow_Category <fct>
…
