Calculate annualized load duration curve — calc_annual_ldc • ldc
…
## specify the allowable concentration
allowable_concentration <- 126
## set the units
units(allowable_concentration) <- "cfu/100mL"
df_ldc <- calc_annual_ldc(df,
                   Q = Flow,
                   C = Indicator_Bacteria,
                   Date = Date,
                   allowable_concentration = allowable_concentration,
                   estimator = 5,
                   n = 1000)
df_ldc$Q
#> # A tibble: 1,000 × 11
#>    P_Exceedance median_Q lwr.ci_Q upr.ci_Q median_Daily_Flow_V… lwr.ci_Daily_Fl…
#>           <dbl> [ft^3/s] [ft^3/s] [ft^3/s]            [100mL/d]        [100mL/d]
#>  1     0.000500     29.3     23.8     66.5           716846635.       582284980.
#>  2     0.00150      29.3     23.8     66.5           716846635.       582284980.
#>  3     0.00250      29.3     23.8     66.5           716846635.       582284980.
#>  4     0.00350      29.3     23.8     66.5           716846635.       582284980.
#>  5     0.00450      29.3     23.8     66.5           716846635.       582284980.
#>  6     0.00550      29.3     23.8     66.5           716846635.       582284980.
#>  7     0.00650      29.3     23.8     66.5           716846635.       582284980.
#>  8     0.00750      29.3     23.8     66.5           716846635.       582284980.
#>  9     0.00850      29.3     23.8     66.5           716846635.       582284980.
#> 10     0.00950      29.3     23.8     66.5           716846635.       582284980.
#> # … with 990 more rows, and 5 more variables:
#> #   upr.ci_Daily_Flow_Volume [100mL/d], median_Allowable_Daily_Load [cfu/d],
#> #   lwr.ci_Allowable_Daily_Load [cfu/d], upr.ci_Allowable_Daily_Load [cfu/d],
#> #   Flow_Category <fct>
…
