Introduction to ldc • ldc
…
## load example data
df <- as_tibble(tres_palacios) %>%
  ## filter this to the last 6 years of data
  filter(Date >= as.Date("2014-01-01"))

## show the data filtered to paired Q and C observations
df %>% filter(!is.na(Indicator_Bacteria))
#> # A tibble: 27 × 4
#>    site_no  Date        Flow Indicator_Bacteria
#>    <chr>    <date>     <dbl>              <dbl>
#>  1 08162600 2014-03-05 59.3               16000
#>  2 08162600 2014-06-17 13.6                  52
#>  3 08162600 2014-10-02 20.4                 250
#>  4 08162600 2014-12-04 66.5                2400
#>  5 08162600 2015-03-17 25.9                 180
#>  6 08162600 2016-02-10  9.46                 32
#>  7 08162600 2016-04-06  9.46                 31
#>  8 08162600 2016-06-16 28.3                  75
#>  9 08162600 2016-09-28 25.4                  31
#> 10 08162600 2016-12-14 15.9                 110
#> # … with 17 more rows
ldc also utilizes the units package to handle unit conversions. Therefore, \(Q\) and \(C\) will need to be formatted as units objects before using any ldc functions. In the example below, we need to create a new unit, “cfu”, for the Indicator_Bacteria variable and change both Flow and Indicator_Bacteria to unit objects.

## load required packages
library(units)
#> udunits database from /usr/share/xml/udunits/udunits2.xml

## make the cfu unit
install_unit("cfu")

## change Q and C to unit objects with appropriate units
df <- df %>%
  mutate(Flow = set_units(Flow, "ft^3/s"),
         Indicator_Bacteria = set_units(Indicator_Bacteria, "cfu/100mL"))
df
#> # A tibble: 2,557 × 4
#>    site_no  Date           Flow Indicator_Bacteria
#>    <chr>    <date>     [ft^3/s]        [cfu/100mL]
#>  1 08162600 2014-01-01     7.82                 NA
#>  2 08162600 2014-01-02     7.64                 NA
#>  3 08162600 2014-01-03     9.34                 NA
#>  4 08162600 2014-01-04     7.42                 NA
#>  5 08162600 2014-01-05     7.45                 NA
#>  6 08162600 2014-01-06     6.79                 NA
#>  7 08162600 2014-01-07     6.59                 NA
#>  8 08162600 2014-01-08     7.28                 NA
#>  9 08162600 2014-01-09    25.5                  NA
#> 10 08162600 2014-01-10    29.4                  NA
#> # … with 2,547 more rows
…
## set the allowable concentration
allowable_concentration <- 126
units(allowable_concentration) <- "cfu/100mL"

## calculate the ldc
df_ldc <- calc_ldc(df,
                   Q = Flow,
                   C = Indicator_Bacteria,
                   allowable_concentration = allowable_concentration,
                   breaks = c(1, 0.9, 0.6, 0.4, 0.1, 0),
                   labels = c("Highest flows", "High Flows", "Moderate Flows", "Dry Conditions", "Lowest Flows"))

## show the result
df_ldc %>% filter(!is.na(Indicator_Bacteria))
#> # A tibble: 27 × 9
#>    site_no  Date           Flow Indicator_Bacteria Daily_Flow_Volume  Daily_Load
#>    <chr>    <date>     [ft^3/s]        [cfu/100mL]         [100mL/d]     [cfu/d]
#>  1 08162600 2016-02-10     9.46                 32        231446047.     7.41e 9
#>  2 08162600 2016-04-06     9.46                 31        231446047.     7.17e 9
#>  3 08162600 2020-08-24    10.7                 130        261783583.     3.40e10
#>  4 08162600 2019-10-15    12.7                 310        310715094.     9.63e10
#>  5 08162600 2014-06-17    13.6                  52        332734274.     1.73e10
#>  6 08162600 2018-07-24    14.3                  20        349860303.     7.00e 9
#>  7 08162600 2020-10-28    14.5                 130        354753454.     4.61e10
#>  8 08162600 2020-05-06    14.7                 110        359646605.     3.96e10
#>  9 08162600 2020-01-15    14.8                  84        362093181.     3.04e10
#> 10 08162600 2016-12-14    15.9                 110        389005512.     4.28e10
#> # … with 17 more rows, and 3 more variables: Allowable_Daily_Load [cfu/d],
#> #   P_Exceedance <dbl>, Flow_Category <fct>
…
