Why Units • ldc
…
## create a cfu unit. it is a simple count, so we just add it as an arbitrary unit.
install_unit("cfu")

## format the data for use in ldc
tres_palacios <- as_tibble(tres_palacios) |>
  ## flow must have units, here is is in cfs
  mutate(Flow = set_units(Flow, "ft^3/s"))|>
  ## pollutant concentration must have units
  mutate(Indicator_Bacteria = set_units(Indicator_Bacteria, "cfu/100mL"))
tres_palacios
#> # A tibble: 7,671 × 4
#>    site_no  Date           Flow Indicator_Bacteria
#>    <chr>    <date>     [ft^3/s]        [cfu/100mL]
#>  1 08162600 2000-01-01     0.84                 NA
#>  2 08162600 2000-01-02     3                    NA
#>  3 08162600 2000-01-03     3.4                  NA
#>  4 08162600 2000-01-04     2.6                  NA
#>  5 08162600 2000-01-05     1.6                  NA
#>  6 08162600 2000-01-06     3.2                  NA
#>  7 08162600 2000-01-07    11                    NA
#>  8 08162600 2000-01-08    17                    NA
#>  9 08162600 2000-01-09    22                    NA
#> 10 08162600 2000-01-10    18                    NA
#> # … with 7,661 more rows

The tibble above shows the correct units in each column. What if we want to use metric units for flow?

tres_palacios <- tres_palacios |>
  mutate(Flow = set_units(Flow, "m^3/s"))
tres_palacios
#> # A tibble: 7,671 × 4
#>    site_no  Date          Flow Indicator_Bacteria
#>    <chr>    <date>     [m^3/s]        [cfu/100mL]
#>  1 08162600 2000-01-01  0.0238                 NA
#>  2 08162600 2000-01-02  0.0850                 NA
#>  3 08162600 2000-01-03  0.0963                 NA
#>  4 08162600 2000-01-04  0.0736                 NA
#>  5 08162600 2000-01-05  0.0453                 NA
#>  6 08162600 2000-01-06  0.0906                 NA
#>  7 08162600 2000-01-07  0.311                  NA
#>  8 08162600 2000-01-08  0.481                  NA
#>  9 08162600 2000-01-09  0.623                  NA
#> 10 08162600 2000-01-10  0.510                  NA
#> # … with 7,661 more rows
…
## specify the allowable concentration
allowable_concentration <- 126
## set the units
units(allowable_concentration) <- "cfu/100mL"

## calculate the exceedance probabilities along with
## allowable pollutant loads and measured pollutant loads
## at given probabilities
df_ldc <- calc_ldc(tres_palacios, 
                   Q = Flow, 
                   C = Indicator_Bacteria, 
                   allowable_concentration = allowable_concentration)

df_ldc
#> # A tibble: 7,671 × 9
#>    site_no  Date          Flow Indicator_Bacteria Daily_Flow_Volume Daily_Load
#>    <chr>    <date>     [m^3/s]        [cfu/100mL]         [100mL/d]    [cfu/d]
#>  1 08162600 2000-08-18 0.00623                 NA          5382466.         NA
#>  2 08162600 2000-03-07 0.0119                  NA         10275617.         NA
#>  3 08162600 2000-03-06 0.0170                  NA         14679453.         NA
#>  4 08162600 2000-08-22 0.0212                  NA         18349317.         NA
#>  5 08162600 2000-03-08 0.0221                  NA         19083289.         NA
#>  6 08162600 2000-08-17 0.0221                  NA         19083289.         NA
#>  7 08162600 2000-09-11 0.0227                  NA         19572604.         NA
#>  8 08162600 2000-01-01 0.0238                  NA         20551235.         NA
#>  9 08162600 2000-08-21 0.0263                  NA         22753153.         NA
#> 10 08162600 2000-03-05 0.0283                  NA         24465755.         NA
#> # … with 7,661 more rows, and 3 more variables: Allowable_Daily_Load [cfu/d],
#> #   P_Exceedance <dbl>, Flow_Category <fct>

Now we have the percent exceedance for daily flow, flow volume, and allowable daily loads. The daily flow volume and daily load volume are huge numbers, so it might make sense to convert those units.

df_ldc |>
  mutate(Daily_Flow_Volume = set_units(Daily_Flow_Volume, "m^3/day"),
         Allowable_Daily_Load = set_units(Allowable_Daily_Load, "1E9cfu/day"))
#> # A tibble: 7,671 × 9
#>    site_no  Date          Flow Indicator_Bacteria Daily_Flow_Volume Daily_Load
#>    <chr>    <date>     [m^3/s]        [cfu/100mL]           [m^3/d]    [cfu/d]
#>  1 08162600 2000-08-18 0.00623                 NA              538.         NA
#>  2 08162600 2000-03-07 0.0119                  NA             1028.         NA
#>  3 08162600 2000-03-06 0.0170                  NA             1468.         NA
#>  4 08162600 2000-08-22 0.0212                  NA             1835.         NA
#>  5 08162600 2000-03-08 0.0221                  NA             1908.         NA
#>  6 08162600 2000-08-17 0.0221                  NA             1908.         NA
#>  7 08162600 2000-09-11 0.0227                  NA             1957.         NA
#>  8 08162600 2000-01-01 0.0238                  NA             2055.         NA
#>  9 08162600 2000-08-21 0.0263                  NA             2275.         NA
#> 10 08162600 2000-03-05 0.0283                  NA             2447.         NA
#> # … with 7,661 more rows, and 3 more variables:
#> #   Allowable_Daily_Load [1E9cfu/d], P_Exceedance <dbl>, Flow_Category <fct>
…
